<?xml version="1.0" encoding="UTF-8"?>
<svg width="16px" height="16px" viewBox="0 0 16 16" version="1.1" xmlns="http://www.w3.org/2000/svg" xmlns:xlink="http://www.w3.org/1999/xlink">
    <!-- Generator: Sketch 51.2 (57519) - http://www.bohemiancoding.com/sketch -->
    <title>check-green-cc</title>
    <desc>Created with Sketch.</desc>
    <defs></defs>
    <g id="Page-1" stroke="none" stroke-width="1" fill="none" fill-rule="evenodd">
        <g id="check-green-cc" fill-rule="nonzero">
            <rect id="Check-Background" fill="#302F31" x="0" y="0" width="16" height="16"></rect>
            <polygon id="Rectangle-34" fill="#FFFFFF" points="6.66666667 11.2 4 8.53333333 5.06666667 7.46666667 6.66666667 9.06666667 10.9333333 4.8 12 5.86666667"></polygon>
        </g>
    </g>
</svg>