<svg width="10px" height="10px" viewBox="0 0 10 10" version="1.1" xmlns="http://www.w3.org/2000/svg" xmlns:xlink="http://www.w3.org/1999/xlink">
    <!-- Generator: Sketch 46.2 (44496) - http://www.bohemiancoding.com/sketch -->
    <desc>Created with Sketch.</desc>
    <defs></defs>
    <g id="Checkout-Flow-Mobile" stroke="none" stroke-width="1" fill="none" fill-rule="evenodd">
        <g id="7Checkout-Flow-P4-Different-Shipping" transform="translate(-279.000000, -222.000000)" fill-rule="nonzero" fill="#3D3935">
            <g id="Payment-Method" transform="translate(16.000000, 207.000000)">
                <g id="Lock" transform="translate(263.000000, 15.000000)">
                    <path d="M5.03074498,0 C3.48308113,0 2.22845168,1.25462945 2.22845168,2.80229331 L2.22845168,4.35912292 L1.91708575,4.35912292 C1.22923515,4.35912292 0.671622062,4.91673601 0.671622062,5.60458661 L0.671622062,8.71824584 C0.671622062,9.40609645 1.22923515,9.96370953 1.91708575,9.96370953 L8.14440421,9.96370953 C8.83225482,9.96370953 9.38986791,9.40609645 9.38986791,8.71824584 L9.38986791,5.60458661 C9.38986791,4.91673601 8.83225482,4.35912292 8.14440421,4.35912292 L7.83303829,4.35912292 L7.83303829,2.80229331 C7.83303829,1.25462945 6.57840884,0 5.03074498,0 Z M6.53713878,4.35912292 L3.58894231,4.35912292 L3.58894231,2.35254253 C3.58894231,1.74111977 4.20356681,1.24546369 5.03074498,1.24546369 C5.85792315,1.24546369 6.53713878,1.74111977 6.53713878,2.35254253 L6.53713878,4.35912292 Z" id="Shape"></path>
                </g>
            </g>
        </g>
    </g>
</svg>