
<svg width="8px" height="9px" viewBox="0 0 8 9" version="1.1" xmlns="http://www.w3.org/2000/svg" xmlns:xlink="http://www.w3.org/1999/xlink">
    <!-- Generator: Sketch 46.2 (44496) - http://www.bohemiancoding.com/sketch -->
    <desc>Created with Sketch.</desc>
    <defs></defs>
    <g id="Checkout-Flow-Mobile" stroke="none" stroke-width="1" fill="none" fill-rule="evenodd">
        <g id="5Checkout-Flow-P4-Mobile" transform="translate(-32.000000, -464.000000)">
            <g id="Order-Summary" transform="translate(16.000000, 415.000000)">
                <g id="+Green" transform="translate(13.000000, 48.000000)">
                    <g id="+" transform="translate(6.799684, 6.042138) rotate(-315.000000) translate(-6.799684, -6.042138) translate(2.799684, 1.542138)">
                        <circle id="Oval" fill="#FFA38B" cx="3.93748871" cy="4.124286" r="3.93748871"></circle>
                        <polygon id="x-red" stroke="#FFFFFF" stroke-width="0.5" stroke-linecap="square" transform="translate(3.987617, 4.101308) rotate(91.000000) translate(-3.987617, -4.101308) " points="5.56896148 5.59393063 5.48023885 5.68265326 2.40627196 2.60868637 2.49499459 2.51996374"></polygon>
                    </g>
                </g>
            </g>
        </g>
    </g>
</svg>