{
  "21": {
    "name": "12 Meals Box",
    "description": "12 Meals Box",
    "price": "65.88"
  },
  "22": {
    "name": "24 Meals Box",
    "description": "24 Meals Box",
    "price": "119.76"
  }
}